[
    {
        "id": 1,
        "name": "1c_add_001",
        "description": "Первое спецразмещение + 1%"
    },
    {
        "id": 2,
        "name": "2m_mult_11",
        "description": "Второе место * 1.1"
    }
]
